# Color definition for Tinkercad Obj File 2015

newmtl color_11107152
Ka 0 0 0 
Kd 0.6627450980392157 0.4823529411764706 0.3137254901960784
d 1
illum 0.0

newmtl color_16448250
Ka 0 0 0 
Kd 0.9803921568627451 0.9803921568627451 0.9803921568627451
d 1
illum 0.0

newmtl color_4634441
Ka 0 0 0 
Kd 0.27450980392156865 0.7176470588235294 0.28627450980392155
d 1
illum 0.0

